[
    2,
    7,
    14,
    16,
    18,
    22,
    23,
    24,
    54,
    64,
    65,
    69,
    73,
    85,
    86,
    93,
    100,
    103,
    112,
    120,
    123,
    131,
    137,
    138,
    142,
    147,
    148,
    149,
    150,
    151,
    160,
    169,
    170,
    173,
    174,
    183,
    187,
    191,
    193,
    194,
    195,
    196,
    201,
    210,
    211,
    219,
    227,
    228,
    231,
    232,
    239,
    240,
    241,
    242,
    251,
    255,
    256,
    257,
    258,
    259,
    260,
    261,
    262,
    268,
    269,
    270,
    283,
    284,
    285,
    286,
    291,
    292,
    293,
    297,
    311,
    321,
    322,
    323,
    326,
    327,
    338,
    339,
    351,
    352,
    356,
    357,
    359,
    361,
    366,
    371,
    372,
    379,
    386,
    392,
    394,
    399,
    401,
    409,
    415,
    416,
    419,
    420,
    428,
    430,
    431,
    433,
    436,
    437,
    438,
    443,
    444,
    448,
    450,
    453,
    455,
    457,
    459,
    461,
    463,
    465,
    467,
    468,
    469,
    473,
    477,
    480,
    481,
    485,
    495,
    497,
    498,
    513,
    519,
    525,
    527,
    530,
    538,
    540,
    541,
    548,
    549,
    551,
    552
]