{
    "144973172985430016": {
        "coins": 0,
        "tickets": 547,
        "special_tickets": 0,
        "super_tickets": 0,
        "ultra_tickets": 0,
        "gachas": {
            "422": 5,
            "492": 1,
            "228": 1,
            "341": 1,
            "84": 1,
            "396": 1,
            "518": 1,
            "370": 1,
            "72": 1,
            "169": 1,
            "245": 1,
            "36": 1,
            "211": 1,
            "151": 1,
            "448": 1,
            "190": 1,
            "111": 1,
            "359": 1,
            "464": 1,
            "465": 1,
            "477": 12,
            "419": 1,
            "374": 1,
            "25": 1,
            "162": 1,
            "406": 1
        },
        "purchases": 0,
        "rolls": 23,
        "conversions": 0,
        "consecutive_logins": 0,
        "last_login": 0,
        "achievements": {
            "1": 0,
            "2": 0,
            "3": 0,
            "4": 0,
            "5": 0,
            "6": 0,
            "7": 0,
            "8": 0,
            "9": 0,
            "10": 0,
            "11": 0,
            "12": 0,
            "13": 0,
            "14": 0,
            "15": 0,
            "16": 0,
            "17": 0,
            "18": 0,
            "19": 0,
            "20": 0,
            "21": 0,
            "22": 0,
            "23": 0,
            "24": 0,
            "25": 0,
            "26": 0,
            "27": 0,
            "28": 0,
            "29": 0,
            "30": 0,
            "31": 0,
            "32": 0,
            "33": 0,
            "34": 0,
            "35": 0,
            "36": 0,
            "37": 0,
            "38": 0,
            "39": 0,
            "40": 0,
            "41": 0,
            "42": 0,
            "43": 0,
            "44": 0,
            "45": 0,
            "46": 0,
            "47": 0,
            "48": 0,
            "49": 0,
            "50": 0,
            "51": 0,
            "52": 0,
            "53": 0,
            "54": 0,
            "55": 0,
            "56": 0,
            "57": 0,
            "58": 0,
            "59": 0,
            "60": 0,
            "61": 0,
            "62": 0,
            "63": 0,
            "64": 0,
            "65": 0,
            "66": 0,
            "67": 0
        }
    },
    "196304053725167616": {
        "coins": 0,
        "tickets": 2,
        "special_tickets": 0,
        "super_tickets": 0,
        "ultra_tickets": 0,
        "gachas": {
            "422": 5,
            "492": 1,
            "228": 1,
            "341": 1,
            "84": 1,
            "396": 1,
            "518": 1,
            "370": 1,
            "72": 1,
            "169": 1,
            "245": 1,
            "36": 1,
            "211": 1,
            "151": 1,
            "448": 1,
            "190": 1,
            "111": 1,
            "359": 1,
            "464": 1,
            "465": 1,
            "477": 12,
            "419": 1,
            "374": 1,
            "25": 1,
            "162": 1,
            "406": 1,
            "243": 2,
            "66": 3
        },
        "purchases": 0,
        "rolls": 1,
        "conversions": 0,
        "consecutive_logins": 1,
        "last_login": 20210110,
        "achievements": {
            "1": 0,
            "2": 0,
            "3": 0,
            "4": 0,
            "5": 0,
            "6": 0,
            "7": 0,
            "8": 0,
            "9": 0,
            "10": 0,
            "11": 0,
            "12": 0,
            "13": 0,
            "14": 0,
            "15": 0,
            "16": 0,
            "17": 0,
            "18": 0,
            "19": 0,
            "20": 0,
            "21": 0,
            "22": 0,
            "23": 0,
            "24": 0,
            "25": 0,
            "26": 0,
            "27": 0,
            "28": 0,
            "29": 0,
            "30": 0,
            "31": 0,
            "32": 0,
            "33": 0,
            "34": 0,
            "35": 0,
            "36": 0,
            "37": 0,
            "38": 0,
            "39": 0,
            "40": 0,
            "41": 0,
            "42": 0,
            "43": 0,
            "44": 0,
            "45": 0,
            "46": 0,
            "47": 0,
            "48": 0,
            "49": 0,
            "50": 0,
            "51": 0,
            "52": 0,
            "53": 0,
            "54": 0,
            "55": 0,
            "56": 0,
            "57": 0,
            "58": 0,
            "59": 0,
            "60": 0,
            "61": 0,
            "62": 0,
            "63": 0,
            "64": 0,
            "65": 0,
            "66": 0,
            "67": 0
        }
    }
}